{
  "display": {
    "title": "GJ_Fantasy_Scene",
    "favicon": "favicon_asset"
  },
  "owner": "",
  "contact": {
    "name": "Sofia Alves and Carl Fravel",
    "email": ""
  },
  "main": "bin/game.js",
  "tags": [],
  "scene": {
    "parcels": [
      "56,147",
      "56,148",
      "56,149",
      "56,150",
      "57,147",
      "57,148",
      "57,149",
      "57,150",
      "58,147",
      "58,148",
      "58,149",
      "58,150",
      "59,147",
      "59,148",
      "59,149",
      "59,150"
    ],
    "base": "56,147"
  },
  "spawnPoints": [
    {
      "name": "spawn1",
      "default": true,
      "position": {
        "x": 26,
        "y": 1,
        "z": 1
      }
    }
  ],
  "communications": {
    "type": "webrtc",
    "signalling": "https://signalling-01.decentraland.org"
  },
  "policy": {
    "contentRating": "E",
    "fly": true,
    "voiceEnabled": true,
    "blacklist": [],
    "teleportPosition": ""
  },
  "source": {
    "origin": "builder",
    "projectId": "0b3d5b6a-180f-4255-81da-655f51a5b058"
  }
}