{
  "display": {
    "title": "GJ_Fantasy_Scene",
    "favicon": "favicon_asset"
  },
  "owner": "",
  "contact": {
    "name": "Sofia Alves and Carl Fravel",
    "email": ""
  },
  "main": "bin/game.js",
  "tags": [],
  "scene": {
    "parcels": [
      "0,0",
      "0,1",
      "0,2",
      "0,3",
      "1,0",
      "1,1",
      "1,2",
      "1,3",
      "2,0",
      "2,1",
      "2,2",
      "2,3",
      "3,0",
      "3,1",
      "3,2",
      "3,3"
    ],
    "base": "0,0"
  },
  "spawnPoints": [
    {
      "name": "spawn1",
      "default": true,
      "position": {
        "x": 26,
        "y": 1,
        "z": 1
      }
    }
  ],
  "communications": {
    "type": "webrtc",
    "signalling": "https://signalling-01.decentraland.org"
  },
  "policy": {
    "contentRating": "E",
    "fly": true,
    "voiceEnabled": true,
    "blacklist": [],
    "teleportPosition": ""
  },
  "source": {
    "origin": "builder",
    "projectId": "0b3d5b6a-180f-4255-81da-655f51a5b058"
  }
}